{
  "values": [
    "cobblemon:small_budding_sky_tumblestone",
    "cobblemon:medium_budding_sky_tumblestone",
    "cobblemon:large_budding_sky_tumblestone",
    "cobblemon:sky_tumblestone_cluster",
    "cobblemon:sky_tumblestone_block",
    "cobblemon:sky_tumblestone",
	"cobblemon:polished_sky_tumblestone",
	"cobblemon:polished_sky_tumblestone_stairs",
	"cobblemon:polished_sky_tumblestone_slab",
	"cobblemon:polished_sky_tumblestone_wall",
	"cobblemon:chiseled_polished_sky_tumblestone",
	"cobblemon:sky_tumblestone_bricks",
	"cobblemon:sky_tumblestone_brick_stairs",
	"cobblemon:sky_tumblestone_brick_slab",
	"cobblemon:sky_tumblestone_brick_wall",
	"cobblemon:chiseled_sky_tumblestone_bricks"
  ]
}